INDEX VERSION 1.127+C:\Users\Tuan\Documents\java-game-bounce-ball\.metadata\.plugins\org.eclipse.jdt.core
909956061.index
2956712373.index
1323822197.index
1953204393.index
330033668.index
101985224.index
2318493069.index
302260151.index
4149905213.index
2443587621.index
2412373351.index
2614163790.index
676203792.index
360280603.index
2844887837.index
1143377719.index
2387030877.index
3478317512.index
628557635.index
